Hola a todos, mi nombre es Stepan. Quiero dormir
░░░░░░░░░░░████░░░░░░░░░░░░░░░░░░░░
░░░░░░░░░███░██░░░░░░░░░░░░░░░░░░░░
░░░░░░░░░██░░░█░░░░░░░░░░░░░░░░░░░░
░░░░░░░░░██░░░██░░░░░░░░░░░░░░░░░░░
░░░░░░░░░░██░░░███░░░░░░░░░░░░░░░░░
░░░░░░░░░░░██░░░░██░░░░░░░░░░░░░░░░
░░░░░░░░░░░██░░░░░███░░░░░░░░░░░░░░
░░░░░░░░░░░░██░░░░░░██░░░░░░░░░░░░░
░░░░░░░███████░░░░░░░██░░░░░░░░░░░░
░░░░█████░░░░░░░░░░░░░░███░██░░░░░░
░░░██░░░░░████░░░░░░░░░░██████░░░░░
░░░██░░████░░███░░░░░░░░░░░░░██░░░░
░░░██░░░░░░░░███░░░░░░░░░░░░░██░░░░
░░░░██████████░███░░░░░░░░░░░██░░░░
░░░░██░░░░░░░░████░░░░░░░░░░░██░░░░
░░░░███████████░░██░░░░░░░░░░██░░░░
░░░░░░██░░░░░░░████░░░░░██████░░░░░
░░░░░░██████████░██░░░░███░██░░░░░░
░░░░░░░░░██░░░░░████░███░░░░░░░░░░░
░░░░░░░░░█████████████░░░░░░░░░░░░░
░░░░░░░░░░░░░░░░░░░░░░░░░░░░░░░░░░░


===
molt bona feina!!!
